<svg height="21.523" viewBox="0 0 21.524 21.523" width="21.524" xmlns="http://www.w3.org/2000/svg">
    <g id="ei_search" transform="translate(-10 -10)">
        <path
            d="M18.837,27.675a8.837,8.837,0,1,1,8.837-8.837A8.82,8.82,0,0,1,18.837,27.675Zm0-16.315a7.478,7.478,0,1,0,7.478,7.478A7.456,7.456,0,0,0,18.837,11.36Z"
            data-name="Path 2148" fill="#904e95" id="Path_2148" />
        <path d="M32.229,31.267l6.1,6.1-.961.961-6.1-6.1Z" data-name="Path 2149" fill="#904e95"
            id="Path_2149" transform="translate(-6.81 -6.81)" />
    </g>
</svg>
